---
http_interactions:
- request:
    method: get
    uri: https://api.pexels.com/v1/search?per_page=1&query=Denver
    body:
      encoding: US-ASCII
      string: ''
    headers:
      Authorization:
      - "<PEXELS_API_KEY>"
      User-Agent:
      - Faraday v1.1.0
      Accept-Encoding:
      - gzip;q=1.0,deflate;q=0.6,identity;q=0.3
      Accept:
      - "*/*"
  response:
    status:
      code: 200
      message: OK
    headers:
      Date:
      - Wed, 11 Nov 2020 02:45:24 GMT
      Content-Type:
      - application/json; charset=utf-8
      Content-Length:
      - '414'
      Connection:
      - keep-alive
      Set-Cookie:
      - __cfduid=d5ffa695882d2637e27f358fc69afadbe1605059492; expires=Fri, 11-Dec-20
        01:51:32 GMT; path=/; domain=.pexels.com; HttpOnly; SameSite=Lax
      - __cfduid=df7ef81b71850e44ef7c202738c4d26b31605062724; expires=Fri, 11-Dec-20
        02:45:24 GMT; path=/; domain=.pexels.com; HttpOnly; SameSite=Lax
      Cache-Control:
      - max-age=0, private, must-revalidate
      Cf-Cache-Status:
      - DYNAMIC
      Cf-Request-Id:
      - 0656caa2410000c7b94f15c000000001
      Expect-Ct:
      - max-age=604800, report-uri="https://report-uri.cloudflare.com/cdn-cgi/beacon/expect-ct"
      Vary:
      - Origin
      X-Frame-Options:
      - ALLOWALL
      X-Ratelimit-Limit:
      - '20000'
      X-Ratelimit-Remaining:
      - '19985'
      X-Ratelimit-Reset:
      - '1607394020'
      X-Request-Id:
      - 85ce726f-b394-4d89-839d-a664a3be469f
      X-Runtime:
      - '0.039368'
      X-Server:
      - master
      X-Tyk-Cached-Response:
      - '1'
      Server:
      - cloudflare
      Cf-Ray:
      - 5f04ad4a0a40c7b9-DEN
    body:
      encoding: ASCII-8BIT
      string: '{"page":1,"per_page":1,"photos":[{"id":2706750,"width":6240,"height":4160,"url":"https://www.pexels.com/photo/union-station-building-2706750/","photographer":"Thomas
        Ward","photographer_url":"https://www.pexels.com/@thomasleeward","photographer_id":220769,"src":{"original":"https://images.pexels.com/photos/2706750/pexels-photo-2706750.jpeg","large2x":"https://images.pexels.com/photos/2706750/pexels-photo-2706750.jpeg?auto=compress\u0026cs=tinysrgb\u0026dpr=2\u0026h=650\u0026w=940","large":"https://images.pexels.com/photos/2706750/pexels-photo-2706750.jpeg?auto=compress\u0026cs=tinysrgb\u0026h=650\u0026w=940","medium":"https://images.pexels.com/photos/2706750/pexels-photo-2706750.jpeg?auto=compress\u0026cs=tinysrgb\u0026h=350","small":"https://images.pexels.com/photos/2706750/pexels-photo-2706750.jpeg?auto=compress\u0026cs=tinysrgb\u0026h=130","portrait":"https://images.pexels.com/photos/2706750/pexels-photo-2706750.jpeg?auto=compress\u0026cs=tinysrgb\u0026fit=crop\u0026h=1200\u0026w=800","landscape":"https://images.pexels.com/photos/2706750/pexels-photo-2706750.jpeg?auto=compress\u0026cs=tinysrgb\u0026fit=crop\u0026h=627\u0026w=1200","tiny":"https://images.pexels.com/photos/2706750/pexels-photo-2706750.jpeg?auto=compress\u0026cs=tinysrgb\u0026dpr=1\u0026fit=crop\u0026h=200\u0026w=280"},"liked":false}],"total_results":31,"next_page":"https://api.pexels.com/v1/search/?page=2\u0026per_page=1\u0026query=denver"}'
  recorded_at: Wed, 11 Nov 2020 02:45:24 GMT
recorded_with: VCR 6.0.0
