---
http_interactions:
- request:
    method: get
    uri: https://api.pexels.com/v1/search?per_page=1&query=Miami
    body:
      encoding: US-ASCII
      string: ''
    headers:
      Authorization:
      - "<PEXELS_API_KEY>"
      User-Agent:
      - Faraday v1.1.0
      Accept-Encoding:
      - gzip;q=1.0,deflate;q=0.6,identity;q=0.3
      Accept:
      - "*/*"
  response:
    status:
      code: 200
      message: OK
    headers:
      Date:
      - Wed, 11 Nov 2020 02:45:15 GMT
      Content-Type:
      - application/json; charset=utf-8
      Content-Length:
      - '427'
      Connection:
      - keep-alive
      Set-Cookie:
      - __cfduid=d605107f498efc78270afee5fc0b16bff1605059485; expires=Fri, 11-Dec-20
        01:51:25 GMT; path=/; domain=.pexels.com; HttpOnly; SameSite=Lax
      - __cfduid=dff501641ee5d51ac3255a43fe5c868511605062715; expires=Fri, 11-Dec-20
        02:45:15 GMT; path=/; domain=.pexels.com; HttpOnly; SameSite=Lax
      Cache-Control:
      - max-age=0, private, must-revalidate
      Cf-Cache-Status:
      - DYNAMIC
      Cf-Request-Id:
      - 0656ca7eca0000c7d51b82e000000001
      Expect-Ct:
      - max-age=604800, report-uri="https://report-uri.cloudflare.com/cdn-cgi/beacon/expect-ct"
      Vary:
      - Origin
      X-Frame-Options:
      - ALLOWALL
      X-Ratelimit-Limit:
      - '20000'
      X-Ratelimit-Remaining:
      - '19987'
      X-Ratelimit-Reset:
      - '1607394020'
      X-Request-Id:
      - 74b63a98-083b-4e25-b479-4c4dd1962a5d
      X-Runtime:
      - '0.046605'
      X-Server:
      - master
      X-Tyk-Cached-Response:
      - '1'
      Server:
      - cloudflare
      Cf-Ray:
      - 5f04ad114ebcc7d5-DEN
    body:
      encoding: ASCII-8BIT
      string: '{"page":1,"per_page":1,"photos":[{"id":421655,"width":3872,"height":2592,"url":"https://www.pexels.com/photo/architecture-blue-bridge-buildings-421655/","photographer":"Elvis
        Vasquez","photographer_url":"https://www.pexels.com/@elvis-vasquez-136708","photographer_id":136708,"src":{"original":"https://images.pexels.com/photos/421655/pexels-photo-421655.jpeg","large2x":"https://images.pexels.com/photos/421655/pexels-photo-421655.jpeg?auto=compress\u0026cs=tinysrgb\u0026dpr=2\u0026h=650\u0026w=940","large":"https://images.pexels.com/photos/421655/pexels-photo-421655.jpeg?auto=compress\u0026cs=tinysrgb\u0026h=650\u0026w=940","medium":"https://images.pexels.com/photos/421655/pexels-photo-421655.jpeg?auto=compress\u0026cs=tinysrgb\u0026h=350","small":"https://images.pexels.com/photos/421655/pexels-photo-421655.jpeg?auto=compress\u0026cs=tinysrgb\u0026h=130","portrait":"https://images.pexels.com/photos/421655/pexels-photo-421655.jpeg?auto=compress\u0026cs=tinysrgb\u0026fit=crop\u0026h=1200\u0026w=800","landscape":"https://images.pexels.com/photos/421655/pexels-photo-421655.jpeg?auto=compress\u0026cs=tinysrgb\u0026fit=crop\u0026h=627\u0026w=1200","tiny":"https://images.pexels.com/photos/421655/pexels-photo-421655.jpeg?auto=compress\u0026cs=tinysrgb\u0026dpr=1\u0026fit=crop\u0026h=200\u0026w=280"},"liked":false}],"total_results":60,"next_page":"https://api.pexels.com/v1/search/?page=2\u0026per_page=1\u0026query=miami"}'
  recorded_at: Wed, 11 Nov 2020 02:45:15 GMT
recorded_with: VCR 6.0.0
